{
    "/js/app.js": "/js/app.js",
    "/js/movieEditInfo.js": "/js/movieEditInfo.js",
    "/js/autocomplete.js": "/js/autocomplete.js",
    "/css/app.css": "/css/app.css",
    "/css/autocomplete.css": "/css/autocomplete.css"
}
